:-)	smile
:-(	frown
|-[#]	angry
>-<!	angry
:%)	accountant
:-\\ 8o	cold
:-o ^^^^!:	zip_fly_fast
:-{ -__-!:	slam_toilet
#:-0	oh
* :-o	alarmed
v(8-|	pilot
-(	black_eye
-)	safety_glasses
(|:-#	footballer
=:-h	footballer
_:^)	american_indian
%-}	amused
0:-)	angel
0:)	angel
o 8-)	angel
o |-)	angel
:-ii	angry
:-@	angry
(:-&	angry
:-||	angry
~ :-(	angry
_o-)	aquanaut
o-)	aquanaut
@:-)	arab
|i	asleep
(i	asleep
|-i	asleep
|-|	asleep
|-(	asleep_with_nightmares
3-i	asleep_with_nightmares
_(d)	astronaut
~:-o	baby_crying
(: )	balaclava
(:-)	bald
:-%	banker
(: )t	bank_robber
c):-o	band_member
~~~c___	beach
*8-)	muppet
:-)}	beard
:-}	beard
:-)#	beard
:<)=	beard
(:-{~	beard
:-)##	beard
:-)>	beard
%+|	hurt
\\:-)	beret
/:-)	beret
*/:-)	beret
(-e:	bi-focals
:-)-8	big_girl
:-)3	big_girl
:-)-}8	big_girl
:-)8<	big_girl
:-)b	big_girl
:-)-{8	big_girl
;-)-8	big_girl
:-(=)	big_teeth
|-o	birth
<>:-)	bishop
:-*	bitter
(:-d	talk
:-1	bland
:-!!	bland
*l*	blotto
:-#	kiss
:-x	kiss
|-<>	kiss
:*	kisses
:p	embaressed
:-r	embaressed
:-) -8	blue_balls
:-)8	bow_tie
:-)x	bow_tie
:_)	boxer
:o)	smile
:-{#}	braces
%-6	braindead
%6	braindead
;-)o===8	braggart
r-)	smile
(:-...	hurt
:^)	smile
}:-(	frown
:c	frown
:-c	frown
|:-)	smile
~m`\~	camel
~=	candle
||	car
}:-<	cat
:-) >	celibate
:-/	chagrined
c=:-)	chef
q=:-)	chef
)	cat
*:o)	clown
*:-))	clown
<*:odx	clown
:*)	clown
:-d	comedy
(v)=|	computer game champion
:-8(	condescending
%-)	confused
3:-)	cow
x-)	cross_eyed
c):-)	cowboy
:-[	critical
:-t	cross
:-z	cross
h-)	cross-eyed
%)	cross-eyed
:!:(	cry
:/	cry
:\-(	cry
:!:-(	cry
:~(~~	cry
:~-(	cry
&.(..	cry
:\)	cry
0-)	cyclops
{0-)	cyclops
(*): i	cyclops
(o-)	cyclops
.)	cyclops
@-)	cyclops
*-(	cyclops
x)	dead
#-)	dead
x-(	dead
8-#	dead
]:-)	devil
~(o)|	diver
(o)|	diver
{:-{	frown
:-l]	dentist
:-e]	bad_teeth
>:-)	devil
}:-)	devil
>-)	devil
};->	devil
> ;7)~~	devil
>:>	devil
c=>8*)	devil
:->	devil
>:->	devil
:-|:-|	dejavu
=:-)	dickhead
<=8:-)	dickhead
=|:-)x	diplomat
:-e	disappointment
:-|	disgusted
:-)-o	doctor
:)~	drooling
:-)~	drooling
:-b	drooling
:-)\	drooling
:))	double-chinned
c=}>;*{)):e:drunk	
c=}>;*{o):e:drunk	
c= 2>;*{)):e:drunk	
%-<|>	drunk
{:v	duck
.\\/	duck
<:-)	stupid
<:)	stupid
<:i	stupid
:-3	eaten
:-&	eating
<:-o	alarmed
(:-i	egghead
(:i	egghead
:-|k-	evening_dress
}-)	devil
|:-|	rigid
(o--<	fishy
~==	candle
@;-)	flirt
:\\\-)	cry
:-<	frown
:->x==|	evening_dress
p-)	fresh
8)	frog
:(	frown
(:-<	frown
(:-(	frown
*:*	fuzzy
(:-|	general
(: (	ghost
(: (=|	ghost
%-(	broken_glasses
:!:-)	smile
(8-{)}:e	 beard
:]	smile
%~v	frown
|-{	frown
8-)	gorilla
|<:-)	graduate
:<)	graduate
:^d	smile
8^|	grim
;-)=)	smile
:-)!:-)!:-)	smile
\\:^)	smile
||*	handshake
<|##	hangman
^l^	smile
:-))	smile
:\-)	smile
:~-)	smile
8->	smile
^(^	smile
:%)%	acne
?-(	hurt
:-~|	cold
:-\|	cold
:-\)	cold
e-(	hurt
=-(	hurt
{:-)	smile
-:-)	smile
~:-)	smile
#:-)	smile
&:-)	smile
$:-)	smile
+-(	hurt
:-|)	smile
:-{	beard
:-*|	beard
:-{)	beard
:-})	beard
:-#)	beard
:-$	mouth_shut
:-|]	smile
:-)=	beard
:-{>	beard
8*)	smile
}:-}	smile
;^?	hurt
;-\\	beaten
;-|	grim
:-s	grim
%-|	tired
*-)	dead
:-( |	dead
:-(o	dead
._/	beaten
:-p	emabaressed
<<<<(:-)	smile
o<:-)	smile
c|:-)	smile
d)	helmet
@}:-)	smile
(|:-)	helmet
<|:-)	smile
8-(:-)	smile
*\\:-)	smile
=|:-)	smile
>:^(	tribal
:-...	hurt
|-)	smile
<:-)`	smile
<:<)}	hippie
{-}}}	hippie
(##]	hockey
b-)	smile
:	hmmm
:-i	hmmm
:-!:	smile
[]	hugs
:`!:-c	frown
m(_)m	thanks
%*@:-(	hungover
%-\\	hungover
%*@:-)	hungover
;-s	i smile
(:-$	ill
:~)	ill
):-)	smile
-]:-)[-	smlie
:|	indifferent
8	infinity
8-i	suspense
8-|	suspense
~~:-)	on_fire
~~:-[	on_fire
<:-i	stupid
&8-|	nerd
*8-|	nerd
*x-|	dead_nerd
:-h	missing_teeth
:-=)	beard
(-:	smile
:-|8( )-	pregnant
:-d~	smoker
|[*]	angry
:!:!:)	smile
>8-0	surprised
:-d*	smile
:*d	is smile
@:-}  smile
:-]	smile
:-)(-:	smile
8-o --*	hurt
:-x}	kissing
+<||-)	knight
:+)	smile
:d	smile
(-d	smile
(-)	smile
:-)))	smile
:.-)	smile
%-(|)	smile
:\-d	smile
:!:-d	smile
;-}	wink
(}-8]	smile
i-8)~v-|!	general
: )	smile
;->	wink
:-9	embaressed
:-{}	lips
8:-)	smile
%+{	hurt
>:-<	angry
>:-<<	angry
> :-(	angry
<*:-)	smi;e
(#-[	frown
>x#-[:e	 unknown
{|:-)	smile
<{:-)}	smile
(:-#	message
2b|^2b	message
- @=	message
8-)*---	smile
:)	smile
*(:-|	soldier
mp(:-[	soldier
o(:-)	miner
+<:-)	monk
<:3	rat
<:3 )~~~~	rat
:^{)>	beard
~~\\8-o	unknown
~~:-(	fire
~:-(	fire
e-:-i	radio
3:o[	pet
8 :-i	wizard
{:-{)}:e	 beard
:/i	unknown
:-0	surprised
:=)	smile
:--)	smile
:c)	smile
:c<	smile
:>)	smile
(:+)	smile
:/\\)	smile
:u)	smile
:n)	smile
:v)	smile
|~(	frown
%-{	frown
:/)	angry
>:-(	frown
+<:-|	monk
:-o	surprised
8-o	surprised
:-v	smile
:-)|	smile
=|:-)=	smile
]:-} =]===	smile
b-|	grim
:/7)	smile
(8-o	mrbill
#:-o	mrbill
#:o+=	unknown
=|:=)	smile
c|:-=	unknown
=:o]	smile
: .)	smile
>>-o->	soldier
b-(8	unknown
:-[x>	vampire
8(:-)	smile
:###)	smile
:!:!:-)	smile
7:-)	smile
[:-|i	smile
[:-)	smile
ek(	frown
}:-{|	grim
:=(	frown
:-=(	frown
:-) ---	smile
:\o	surprised
(8 )	smile
:-(o)	smile
?8-o	unknown
:-((	frown
$-)	frown
===:-d	unknown
:-)!!!!	smile
c)b-)	smile
~(:-)	smile
}b-i	grim
|:[\	frown
:-.)	smile
:\}	smile
%\\v	smile
%-~	grim
%-^	grim
:----}  smile
+-:-)	monk
+o:-)	monk
+<(:-)	monk
+-(:-)	monk
@:-()	smile
5:-)	smile
:q)	smile
7:)	smile
7:^]	smile
([(	robocop
|:]	robocop
(|-| f	robocop
>|(	robocop
3:*>	rudolph
*<:-)>	santaclaus
*<|:-)	santaclaus
o-<:-}}}	santaclaus
*<(:-)	santaclaus
o-(:-{o{{{	santaclaus
o<:-}}	santaclaus
:-)===	smile
)p-(	frown
:8-1	grim
3 :-)	smile
****:-)	smile
/:-|	grim
:$)	smile
(8<|	darthvader
4:-)	smile
=):-)	smile
->=:-)x	smile
=)||)	zorro
3:]	smile
3:o]	smile
3:[	frown
:= |	baboon
:=8)	baboon
: =	beaver
d8=	beaver
8^	chicken
3:-o	cow
=^..^=	cat
:3-<	dog
.v	smile
b|	smile
b)	smile
8p	smile
8b	smile
8:]	smile
:8)	smile
:@)	smile
| )	smile
~~~~8}	snake
><:>==	smile
:<=	smile
:v	smile
(:[	smile
*<8-)x	dress
:?)	smile
g-)	smile
%-^)	smile
ox)	pirate
p-(	pirate
p)	pirate
+:-)	smile
i-)	smile
(00)	tired
- -:-(	frown
-:-(	frown
=:-(	frown
:-"	disapproving
e-:-)	radio
=:7)~~	rat
=;7)~~:e	 sarcastic
=:7(~~	rat
=:7>~~	rat
~~(*:=	rat
=%7)~~	rat
=87)~~	rat
0 =:--~~	rat
:[	frown
:~/	angry
|-p	revolted
|-]	robocop
[:-]	robot
:--]	robot
[:]	robot
[:|]`	robot
<:-)<<|	pilot
8^(	frown
(:-\\	angry
:-y	smile
( :+(	scared
:-\\	angry
*#*^*&!:-)	schizophrenic
*#*!^*&!:-	schizophrenic
:#	scream
:@	scream
(:)-)	smile
0-(	frown
(b^|	secret
(-_-)	smile
m-)	eyes_shut
b-d:e	 stupid
:-m	mouth_shut
c):-| *	sheriff
:o	surprised
:- ]	surprised
:-()	shouting
:-( )	shouting
:-o=	surprised
.^)	smile
:)%	skateboarder
^_^	smile
;-)	wink
[8-{)	smile
:-j	smile
;>)	smile
:q	smoking
:-q	smoking
|:-q	smoking
:~i	smoking
:ui	smoking
:-g-	smoking
:~j	smoking
:uj	smoking
:?	smoking
:-7	smoking
~~~~~8}	snake
...---...	sos
:-w	snake
^o	snoring
3-o	snoring
$(:-|	soldier
(:-)"	soldier
_(:-|	soldier
|-(:-|	soldier
?-):e	 confused
:-6 unhappy
/\\oo/\\	spider
:-\	angry
$:-$	rich
(:=<	face
:-)o->	dress
(:-|k-	dress
]-i	cool
b-)[<	swim
:-)j	surfer
( o ) ( o	surprise
=)	smile
8-(	frown
(8-)	swim
:x	mouth_shut
d :-o	surprised
:-8	talk
&-|	cry
&-(	cry
-=* :-)	smile
:\!:-)	smile
(:>-<	thief
:->-<	thief
>:w	rude
:-)o-	tie
:-)>-	tie
:-)x===>	tie
:*}	drunk
:-+	lips
:&	shy
l-p	tired
:-a	emabaressed
>:-i	trekkie
>:-|	trekkie
:-)8>	tuxedo
:-)x>	tuxedo
:-)8---	tuxedo
^)^ ^(^	talking
(:=)	smile
*<:-)	clown
@|@	tired
:-{ 2	lips
:-~)	cold
`:-)	smile
8 :-)	wizard
}:^#})	smile
}:~#})	smile
:-|<	vampire
:-f	vampire
%*}	drunk
:-(*)	vomiting
:-(#)	braces
:{}	lips
xd:)	smile
@:)	smile
@:]	smile
{(:-)	smile
}(:-(	frown
[:)	headphones
:.-(	cry
(d)	smile
:<	smile
:{	smile
:>	smile
:}	smile
\-)	wink
;)	wink
<:-d	witch
-=#:-)	wizard
8<:-)	wizard
*|-0	tired
8-]	surprised
|0	yawning
|-0	yawning
:-(0)	yelling
(@@)	surprised
(@ @)	surprised
~~~\\8-o	surprised
:-)--	smile
